Actividad de evaluación de la asignatura Métodos Estadísticos Avanzados
…
Validación cruzada Se realizará validación cruzada para comparar los modelos y sus ajustes, para ello el conjunto de datos se dividió en 15% para test y 85% para entrenamiento.

# Se ponen las variables Nit y Cat_prom_CSI como tipo factor
bd_clean$Nit <- as.factor(bd_clean$Nit)
bd_clean$Cat_prom_CSI <- as.factor(bd_clean$Cat_prom_CSI)

# Se parten los datos en 15% de test y 85% de entrenamiento.
parts <- partition(bd_clean, p = 0.15, id_col = "Nit", cat_col = 'Cat_prom_CSI') 

test_set <- parts[[1]]
train_set <- parts[[2]]

test_set

## # A tibble: 46 x 37
##    Nit   PromCSI_CTE Cat_prom_CSI Anio  CIIU  Cta_corr   TRM T_interv T_Desemp
##    <fct>       <dbl> <fct>        <chr> <chr>    <dbl> <dbl>    <dbl>    <dbl>
##  1 8110~       0.838 1            2016  F411~  -12036. 3051.   0.0710   0.0922
##  2 8110~       0.838 1            2017  F411~  -10241. 2951.   0.0613   0.0938
##  3 8300~       0.851 1            2017  F411~  -10241. 2951.   0.0613   0.0938
##  4 8300~       0.851 1            2016  F411~  -12036. 3051.   0.0710   0.0922
##  5 8909~       0.673 1            2018  F411~  -13118. 2956.   0.0435   0.0968
##  6 8909~       0.673 1            2016  F411~  -12036. 3051.   0.0710   0.0922
##  7 9003~       0.831 1            2016  F411~  -12036. 3051.   0.0710   0.0922
##  8 9003~       0.831 1            2017  F411~  -10241. 2951.   0.0613   0.0938
##  9 9004~       0.859 1            2018  F411~  -13118. 2956.   0.0435   0.0968
## 10 9004~       0.859 1            2017  F411~  -10241. 2951.   0.0613   0.0938
## # ... with 36 more rows, and 28 more variables: Inflacion <dbl>,
## #   Bal_Fcal <dbl>, ICCV_var_tot <dbl>, ICCV_Mat <dbl>, ICCV_manobra <dbl>,
## #   ICCV_maq_eq <dbl>, ICCV_unifam <dbl>, ICCV_multifam <dbl>, IPP <dbl>,
## #   IPP_Mat <dbl>, IPVN_ciudad <dbl>, IPVN_casa_nueva <dbl>,
## #   IPVN_tot_nal <dbl>, IPVU <dbl>, PIB_CONS_ERNR <dbl>,
## #   VAR_PIB_CONS_ERNR <dbl>, Var_Area_ap_viv <dbl>, Unid_aprob <dbl>,
## #   Var_unid_aprob <dbl>, Var_IPVN <dbl>, Tasai_Rez <dbl>, Tasad_Rez <dbl>,
## #   TCyG_CTE <int>, TIng_CTE <int>, PIB_CTE <dbl>, PIB_CONST <dbl>,
## #   PIB_CONST_CTE <dbl>, CSI_CTE <dbl>

# se agrega una columna con un número de 1 a k que será al grupo que pertenece 
# para hacer la validación cruzada. 
train_set <- fold(train_set, k = 4, cat_col = 'Cat_prom_CSI', id_col = 'Nit')

# Organizar por folds. 
train_set <- train_set %>% arrange(.folds)

train_set

## # A tibble: 276 x 38
## # Groups:   .folds [4]
##    Nit   PromCSI_CTE Cat_prom_CSI Anio  CIIU  Cta_corr   TRM T_interv T_Desemp
##    <fct>       <dbl> <fct>        <chr> <chr>    <dbl> <dbl>    <dbl>    <dbl>
##  1 8000~       0.634 1            2017  F411~  -10241. 2951.   0.0613   0.0938
##  2 8305~       0.839 1            2019  F411~  -13748. 3281.   0.0425   0.105 
##  3 8902~       0.725 1            2017  F411~  -10241. 2951.   0.0613   0.0938
##  4 8902~       0.725 1            2016  F411~  -12036. 3051.   0.0710   0.0922
##  5 8902~       0.725 1            2018  F411~  -13118. 2956.   0.0435   0.0968
##  6 9003~       0.868 1            2018  F411~  -13118. 2956.   0.0435   0.0968
##  7 9003~       0.868 1            2019  F411~  -13748. 3281.   0.0425   0.105 
##  8 9003~       0.868 1            2016  F411~  -12036. 3051.   0.0710   0.0922
##  9 9005~       0.873 1            2018  F411~  -13118. 2956.   0.0435   0.0968
## 10 9005~       0.873 1            2017  F411~  -10241. 2951.   0.0613   0.0938
## # ... with 266 more rows, and 29 more variables: Inflacion <dbl>,
## #   Bal_Fcal <dbl>, ICCV_var_tot <dbl>, ICCV_Mat <dbl>, ICCV_manobra <dbl>,
## #   ICCV_maq_eq <dbl>, ICCV_unifam <dbl>, ICCV_multifam <dbl>, IPP <dbl>,
## #   IPP_Mat <dbl>, IPVN_ciudad <dbl>, IPVN_casa_nueva <dbl>,
## #   IPVN_tot_nal <dbl>, IPVU <dbl>, PIB_CONS_ERNR <dbl>,
## #   VAR_PIB_CONS_ERNR <dbl>, Var_Area_ap_viv <dbl>, Unid_aprob <dbl>,
## #   Var_unid_aprob <dbl>, Var_IPVN <dbl>, Tasai_Rez <dbl>, Tasad_Rez <dbl>,
## #   TCyG_CTE <int>, TIng_CTE <int>, PIB_CTE <dbl>, PIB_CONST <dbl>,
## #   PIB_CONST_CTE <dbl>, CSI_CTE <dbl>, .folds <fct>
…
